<?xml version="1.0" encoding="UTF-8" standalone="no"?>
<!-- Generator: Adobe Illustrator 16.0.0, SVG Export Plug-In . SVG Version: 6.00 Build 0)  -->

<svg
   xmlns:dc="http://purl.org/dc/elements/1.1/"
   xmlns:cc="http://creativecommons.org/ns#"
   xmlns:rdf="http://www.w3.org/1999/02/22-rdf-syntax-ns#"
   xmlns:svg="http://www.w3.org/2000/svg"
   xmlns="http://www.w3.org/2000/svg"
   xmlns:sodipodi="http://sodipodi.sourceforge.net/DTD/sodipodi-0.dtd"
   xmlns:inkscape="http://www.inkscape.org/namespaces/inkscape"
   version="1.1"
   id="Layer_1"
   x="0px"
   y="0px"
   width="16px"
   height="16px"
   viewBox="0 0 16 16"
   enable-background="new 0 0 16 16"
   xml:space="preserve"
   sodipodi:docname="MI201702_Icon_Model-01-01.svg"
   inkscape:export-filename="C:\Users\ByronPogson\Documents\Interface icons\Object Browser\Model\Model_40.png"
   inkscape:export-xdpi="240.1501"
   inkscape:export-ydpi="240.1501"
   inkscape:version="0.92.1 r15371"><metadata
     id="metadata11"><rdf:RDF><cc:Work
         rdf:about=""><dc:format>image/svg+xml</dc:format><dc:type
           rdf:resource="http://purl.org/dc/dcmitype/StillImage" /></cc:Work></rdf:RDF></metadata><defs
     id="defs9" /><sodipodi:namedview
     pagecolor="#ffffff"
     bordercolor="#666666"
     borderopacity="1"
     objecttolerance="10"
     gridtolerance="10"
     guidetolerance="10"
     inkscape:pageopacity="0"
     inkscape:pageshadow="2"
     inkscape:window-width="3840"
     inkscape:window-height="2004"
     id="namedview7"
     showgrid="false"
     inkscape:zoom="14.75"
     inkscape:cx="8"
     inkscape:cy="8"
     inkscape:window-x="-16"
     inkscape:window-y="-16"
     inkscape:window-maximized="1"
     inkscape:current-layer="Layer_1" /><path
     d="M12.5,9.91V7.7h-1.65V6.69H9.61v0.84h0.409v1.24H9.61V9.57h1.239V8.5H11.7v1.41h-1.01v2.84h2.84V9.91H12.5z M12.69,11.95  h-1.21v-1.24h1.239L12.69,11.95z"
     id="path2" /><path
     d="M13.72,0.05H3.75V3.4H0v9.66h3.75V16h12.24V2.26L13.72,0.05z M4.66,9.96L2.95,7.37v3.97H1.63V5.22h1.45l1.61,2.59L6.3,5.22  h1.45v6.12H6.41v-4L4.69,9.96H4.66z M14.92,14.93H4.8v-1.87H9.61V3.4H4.82V1.06h8.34v1.72h1.76V14.93z"
     id="path4" /></svg>